0.2 0.44 0.9
0.45 0.44 0.9
0.6 0.44 0.9
0.57896 -0.0918436 0.9
0.512227 -0.272997 0.9
0.53895 -0.0388986 0.9
-0.576464 -0.139156 0.9
-0.399364 0.096791 0.9
-0.350856 -0.0446296 0.9

0.0255 0.0925 0.059
0.0255 0.0925 0.059
0.0255 0.0925 0.059
0.107631 0.0169881 0.0442721
0.0522505 0.0435255 0.047337
0.158572 0.0524405 0.103565
0.192863 0.0106959 0.129719
0.17035 0.0687774 0.122908
0.0104271 0.0378836 0.0725721
