0.2 0.44 0.9
0.45 0.44 0.9
0.6 0.44 0.9
0.473411 -0.0452322 0.9
0.49686 -0.201565 0.9
0.505044 -0.239735 0.9
-0.327005 0.309621 0.9
-0.422242 -0.222411 0.9
-0.420519 -0.191151 0.9

0.0255 0.0925 0.059
0.0255 0.0925 0.059
0.0255 0.0925 0.059
0.0481945 0.0212228 0.0961883
0.12111 0.0945892 0.0586523
0.165278 0.0769986 0.00933541
0.0467607 0.0924898 0.13674
0.0330046 0.0173 0.147153
0.0825846 0.0289074 0.137282
