Success rate: 0.66
Planning time, Cost, Number of nodes expanded, Suboptimality
0.395177 3 112 1
0.006929 1 1 1
0.003994 1 1 1
5.538070 5 1589 1
0.005006 1 1 1
0.783578 4 213 1
3.741210 5 1012 1
0.368569 3 97 1
0.430902 3 111 1
0.415624 3 112 1
0.010598 1 1 1
1.970660 4 525 1
0.005163 1 1 1
1.685130 4 497 1
0.009499 1 1 1
0.008211 1 1 1
0.053277 2 15 1
0.368077 3 108 1
0.011225 1 1 1
0.006556 1 1 1
0.006919 1 1 1
0.006138 1 1 1
0.425913 3 112 1
0.057761 2 15 1
0.052560 2 15 1
0.007166 1 1 1
5.896860 5 1565 1
0.006300 1 1 1
0.052801 2 15 1
0.008807 1 1 1
2.084690 4 528 1
0.006538 1 1 1
1.829390 4 461 1
