Success rate: 0.76
Planning time, Cost, Number of nodes expanded, Suboptimality
0.0077498 2 2 40
0.0243039 4 4 40
0.0169230 4 4 40
0.0505402 13 13 40
0.0145632 3 3 40
0.0110834 2 2 40
0.0102705 2 2 40
0.0063850 1 1 40
0.0437885 11 11 40
0.0356373 7 7 40
0.0649389 17 17 40
0.0106123 2 2 40
0.0319181 6 6 40
0.0551206 14 14 40
0.0305331 8 8 40
0.0072137 1 1 40
0.0607385 15 15 40
0.0504044 13 13 40
0.0072582 1 1 40
0.0583339 14 14 40
0.0164655 2 2 40
0.0162330 4 4 40
0.0198740 4 4 40
0.0111521 3 3 40
0.0688782 17 17 40
0.0598903 14 14 40
0.0375054 7 7 40
0.0778115 17 17 40
0.0184312 2 2 40
0.0623377 15 15 40
0.0088863 1 1 40
0.0507834 13 13 40
0.0086766 1 1 40
0.0073259 1 1 40
0.0089010 2 2 40
0.0248600 4 4 40
0.0150501 3 3 40
0.0196557 3 3 40
