Success rate: 0.86
Planning time, Cost, Number of nodes expanded, Suboptimality
0.00651976 1 1 1
0.04270370 2 15 1
0.01202530 1 1 1
0.05053530 18 3535 10
0.01011860 1 1 1
0.04659090 2 15 1
2.41949000 5 801 1
0.29610900 3 98 1
0.03816020 8 3146 10
0.02103330 7 3474 10
0.04159910 2 15 1
0.02113470 6 3420 10
3.12291000 5 984 1
0.03185120 11 3210 10
0.28734000 3 97 1
0.02683670 9 3233 10
1.41264000 4 431 1
0.04061970 2 15 1
0.00624929 1 1 1
0.03802820 11 3410 10
0.05258490 2 15 1
0.34875800 3 112 1
4.40666000 5 1438 1
0.31428600 3 112 1
0.02055970 6 3490 10
0.00896417 1 1 1
1.45007000 4 487 1
1.32810000 4 454 1
0.01157410 1 1 1
7.27315000 6 2430 1
0.05181320 13 3302 10
0.00278921 1 1 1
0.01191140 1 1 1
0.03790580 11 3448 10
1.23555000 4 447 1
0.03956670 13 3385 10
0.00268434 1 1 1
0.00864055 1 1 1
0.00690460 1 1 1
0.03829730 13 3167 10
0.00846302 1 1 1
0.30211600 3 100 1
0.00634460 1 1 1
