Success rate: 0.52
Planning time, Cost, Number of nodes expanded, Suboptimality
0.0432 2 15 0
0.0026 1 1 0
0.0102 1 1 0
0.0389 2 15 0
0.2912 3 113 0
0.0061 1 1 0
0.0052 1 1 0
0.3262 3 113 0
0.0170 1 1 0
0.0067 1 1 0
0.2962 3 113 0
0.0422 2 15 0
0.3077 3 113 0
0.0089 1 1 0
0.0056 1 1 0
0.0061 1 1 0
1.6131 4 575 0
6.4133 5 2241 0
0.0486 2 15 0
0.0031 1 1 0
0.0026 1 1 0
0.0110 1 1 0
0.2914 3 113 0
0.0027 1 1 0
1.5961 4 575 0
0.0106 1 1 0
1.5074 4 575 0
0.0112 1 1 0
5.8125 5 2241 0
