Success rate: 0.62
Planning time, Cost, Number of nodes expanded, Suboptimality
0.0596621 2 15 1
6.1011500 5 1411 1
3.2244100 5 747 1
0.0042884 1 1 1
1.7553500 4 406 1
6.4605100 5 1478 1
0.0643960 2 15 1
0.0046206 1 1 1
0.0622600 2 15 1
0.0037825 1 1 1
0.0043321 1 1 1
0.0047270 1 1 1
0.0658150 2 15 1
5.1644500 5 1197 1
3.8521800 5 892 1
0.0653117 2 15 1
0.0043078 1 1 1
0.0051614 1 1 1
0.0061023 1 1 1
0.5231020 3 112 1
6.3227400 5 1352 1
0.0049299 1 1 1
0.0041993 1 1 1
0.0042278 1 1 1
0.0690410 2 15 1
0.0655390 2 15 1
0.0686337 2 15 1
0.0673619 2 15 1
0.0042915 1 1 1
0.5046010 3 111 1
0.5091570 3 112 1
